[
  {
    "beds": "3",
    "title": "Imóvel código 1154, com 3 quartos e 2 banheiros.",
    "description": "Fugiat esse eiusmod nostrud duis non ullamco exercitation consectetur laborum sint eu id velit. Non non velit nostrud in sint.",
    "squareMeters": "62",
    "price": "626000",
    "id": "1154",
    "baths": "2",
    "lat": "4",
    "long": "20",
    "thumb": ""
  },
  {
    "beds": "5",
    "thumb": "",
    "title": "Imóvel código 5824, com 5 quartos e 4 banheiros.",
    "squareMeters": "111",
    "price": "1122000",
    "long": "49",
    "id": "5824",
    "baths": "4",
    "lat": "10",
    "description": "Veniam adipisicing elit est consequat mollit sint aliquip deserunt. Esse eu nulla aute ullamco esse non ex excepteur qui ut irure."
  },
  {
    "beds": "5",
    "thumb": "",
    "title": "Imóvel código 3348, com 5 quartos e 4 banheiros.",
    "squareMeters": "103",
    "price": "1078000",
    "long": "29",
    "id": "3348",
    "baths": "4",
    "lat": "12",
    "description": "Sint laborum sit ut fugiat proident in ipsum ad veniam velit. Aliquip officia ad reprehenderit consequat pariatur sint."
  },
  {
    "beds": "5",
    "thumb": "",
    "title": "Imóvel código 1545, com 5 quartos e 4 banheiros.",
    "squareMeters": "139",
    "price": "1394000",
    "long": "12",
    "id": "1545",
    "baths": "4",
    "lat": "13",
    "description": "Mollit fugiat laboris voluptate ipsum. Sit veniam aliqua eu sint ipsum exercitation excepteur labore incididunt cillum minim nostrud id."
  },
  {
    "beds": "5",
    "thumb": "",
    "title": "Imóvel código 4197, com 5 quartos e 4 banheiros.",
    "squareMeters": "115",
    "price": "1182000",
    "long": "42",
    "id": "4197",
    "baths": "4",
    "lat": "18",
    "description": "Ex adipisicing cillum culpa irure nisi fugiat tempor nostrud amet. Aliqua ad voluptate mollit cillum officia tempor qui voluptate laboris eiusmod."
  },
  {
    "beds": "2",
    "thumb": "",
    "title": "Imóvel código 2546, com 2 quartos e 1 banheiros.",
    "squareMeters": "56",
    "price": "607000",
    "long": "15",
    "id": "2546",
    "baths": "1",
    "lat": "19",
    "description": "Ex voluptate consectetur culpa voluptate veniam commodo magna qui. Proident ullamco qui veniam nulla elit magna cupidatat deserunt sunt sint."
  },
  {
    "beds": "5",
    "thumb": "",
    "title": "Imóvel código 95, com 5 quartos e 4 banheiros.",
    "squareMeters": "135",
    "price": "1377000",
    "long": "18",
    "id": "95",
    "baths": "4",
    "lat": "20",
    "description": "Voluptate occaecat est aliquip occaecat. Est id non ad officia nisi occaecat exercitation nisi laboris laboris laboris."
  }
]
